{
    "results": [
      {
        "id": 1,
        "name": "07001 NESI",
        "borough": "BRONX",
        "address": "335 EAST 152 STREET",
        "site_type": "SCHOOL AGE",
        "program_type": "CENTER",
        "approval_license_type": "UNLICENSED: SCHOOL-RUN",
        "image_url": "https://maps.googleapis.com/maps/api/streetview?location=nyc+335+EAST+152+STREET&size=640x640&key=AIzaSyA_I3YwX1T9Q5bE-bgcj8VuqT8YRSxU9vs"
      },
      {
        "id": 2,
        "name": "07001 PS 001 - COURTLANDT SCHOOL",
        "borough": "BRONX",
        "address": "335 EAST 152ND STREET",
        "site_type": "SCHOOL AGE",
        "program_type": "CENTER",
        "approval_license_type": "UNLICENSED: SCHOOL-RUN",
        "image_url": "https://maps.googleapis.com/maps/api/streetview?location=nyc+335+EAST+152ND+STREET&size=640x640&key=AIzaSyA_I3YwX1T9Q5bE-bgcj8VuqT8YRSxU9vs"
      },
      {
        "id": 3,
        "name": "07001 TEAM FIRST CBO",
        "borough": "BRONX",
        "address": "335 EAST 152 STREET",
        "site_type": "SCHOOL AGE",
        "program_type": "CENTER",
        "approval_license_type": "UNLICENSED: SCHOOL-RUN",
        "image_url": "https://maps.googleapis.com/maps/api/streetview?location=nyc+335+EAST+152+STREET&size=640x640&key=AIzaSyA_I3YwX1T9Q5bE-bgcj8VuqT8YRSxU9vs"
      },
      {
        "id": 4,
        "name": "07005 ASPIRA OF NEW YORK CBO",
        "borough": "BRONX",
        "address": "564 JACKSON AVENUE",
        "site_type": "SCHOOL AGE",
        "program_type": "CENTER",
        "approval_license_type": "OFFICE OF CHILDREN AND FAMILY SERVICES",
        "image_url": "https://maps.googleapis.com/maps/api/streetview?location=nyc+564+JACKSON+AVENUE&size=640x640&key=AIzaSyA_I3YwX1T9Q5bE-bgcj8VuqT8YRSxU9vs"
      },
      {
        "id": 5,
        "name": "07005 PS 005 - PORT MORRIS SCHOOL",
        "borough": "BRONX",
        "address": "564 JACKSON AVENUE",
        "site_type": "SCHOOL AGE",
        "program_type": "CENTER",
        "approval_license_type": "UNLICENSED: SCHOOL-RUN",
        "image_url": "https://maps.googleapis.com/maps/api/streetview?location=nyc+564+JACKSON+AVENUE&size=640x640&key=AIzaSyA_I3YwX1T9Q5bE-bgcj8VuqT8YRSxU9vs"
      },
      {
        "id": 6,
        "name": "07017 - P.S. X017",
        "borough": "BRONX",
        "address": "345 BROOK AVENUE",
        "site_type": "SCHOOL AGE",
        "program_type": "CENTER",
        "approval_license_type": "UNLICENSED: SCHOOL-RUN",
        "image_url": "https://maps.googleapis.com/maps/api/streetview?location=nyc+345+BROOK+AVENUE&size=640x640&key=AIzaSyA_I3YwX1T9Q5bE-bgcj8VuqT8YRSxU9vs"
      },
      {
        "id": 7,
        "name": "07018 PS 18",
        "borough": "BRONX",
        "address": "502 MORRIS AVENUE",
        "site_type": "SCHOOL AGE",
        "program_type": "CENTER",
        "approval_license_type": "UNLICENSED: SCHOOL-RUN",
        "image_url": "https://maps.googleapis.com/maps/api/streetview?location=nyc+502+MORRIS+AVENUE&size=640x640&key=AIzaSyA_I3YwX1T9Q5bE-bgcj8VuqT8YRSxU9vs"
      },
      {
        "id": 8,
        "name": "07018 REALKIDS BRONX CBO",
        "borough": "BRONX",
        "address": "502 MORRIS AVENUE",
        "site_type": "SCHOOL AGE",
        "program_type": "CENTER",
        "approval_license_type": "OFFICE OF CHILDREN AND FAMILY SERVICES",
        "image_url": "https://maps.googleapis.com/maps/api/streetview?location=nyc+502+MORRIS+AVENUE&size=640x640&key=AIzaSyA_I3YwX1T9Q5bE-bgcj8VuqT8YRSxU9vs"
      },
      {
        "id": 9,
        "name": "07025 ASPIRA OF NY CBO",
        "borough": "BRONX",
        "address": "811 EAST 149 STREET",
        "site_type": "SCHOOL AGE",
        "program_type": "CENTER",
        "approval_license_type": "OFFICE OF CHILDREN AND FAMILY SERVICES",
        "image_url": "https://maps.googleapis.com/maps/api/streetview?location=nyc+811+EAST+149+STREET&size=640x640&key=AIzaSyA_I3YwX1T9Q5bE-bgcj8VuqT8YRSxU9vs"
      },
      {
        "id": 10,
        "name": "07025 PS 025 - BILINGUAL SCHOOL",
        "borough": "BRONX",
        "address": "811 EAST 149TH STREET",
        "site_type": "SCHOOL AGE",
        "program_type": "CENTER",
        "approval_license_type": "UNLICENSED: SCHOOL-RUN",
        "image_url": "https://maps.googleapis.com/maps/api/streetview?location=nyc+811+EAST+149TH+STREET&size=640x640&key=AIzaSyA_I3YwX1T9Q5bE-bgcj8VuqT8YRSxU9vs"
      },
      {
        "id": 11,
        "name": "07027 BELL",
        "borough": "BRONX",
        "address": "519 ST. ANN'S AVENUE",
        "site_type": "SCHOOL AGE",
        "program_type": "CENTER",
        "approval_license_type": "UNLICENSED: SCHOOL-RUN",
        "image_url": "https://maps.googleapis.com/maps/api/streetview?location=nyc+519+ST.+ANN%27S+AVENUE&size=640x640&key=AIzaSyA_I3YwX1T9Q5bE-bgcj8VuqT8YRSxU9vs"
      },
      {
        "id": 12,
        "name": "07027 DOING ART TOGETHER (SUPPER)",
        "borough": "BRONX",
        "address": "519 ST ANNS AVENUE",
        "site_type": "SCHOOL AGE",
        "program_type": "CENTER",
        "approval_license_type": "UNLICENSED: SCHOOL-RUN",
        "image_url": "https://maps.googleapis.com/maps/api/streetview?location=nyc+519+ST+ANNS+AVENUE&size=640x640&key=AIzaSyA_I3YwX1T9Q5bE-bgcj8VuqT8YRSxU9vs"
      },
      {
        "id": 13,
        "name": "07027 PS 277 (WEH)",
        "borough": "BRONX",
        "address": "519 ST. ANN'S AVENUE",
        "site_type": "SCHOOL AGE",
        "program_type": "CENTER",
        "approval_license_type": "UNLICENSED: SCHOOL-RUN",
        "image_url": "https://maps.googleapis.com/maps/api/streetview?location=nyc+519+ST.+ANN%27S+AVENUE&size=640x640&key=AIzaSyA_I3YwX1T9Q5bE-bgcj8VuqT8YRSxU9vs"
      },
      {
        "id": 14,
        "name": "07027 SPORTS & ARTS ALL ABOUT KIDS",
        "borough": "BRONX",
        "address": "519 ST. ANNS AVENUE",
        "site_type": "SCHOOL AGE",
        "program_type": "CENTER",
        "approval_license_type": "UNLICENSED: SCHOOL-RUN",
        "image_url": "https://maps.googleapis.com/maps/api/streetview?location=nyc+519+ST.+ANNS+AVENUE&size=640x640&key=AIzaSyA_I3YwX1T9Q5bE-bgcj8VuqT8YRSxU9vs"
      },
      {
        "id": 15,
        "name": "07029 GOOD LIFE CBO",
        "borough": "BRONX",
        "address": "758 COURTLANDT AVENUE",
        "site_type": "SCHOOL AGE",
        "program_type": "CENTER",
        "approval_license_type": "OFFICE OF CHILDREN AND FAMILY SERVICES",
        "image_url": "https://maps.googleapis.com/maps/api/streetview?location=nyc+758+COURTLANDT+AVENUE&size=640x640&key=AIzaSyA_I3YwX1T9Q5bE-bgcj8VuqT8YRSxU9vs"
      },
      {
        "id": 16,
        "name": "07029 INNOVATIVE EDUCATIONAL PROGRAM",
        "borough": "BRONX",
        "address": "758 COURTLANDT",
        "site_type": "SCHOOL AGE",
        "program_type": "CENTER",
        "approval_license_type": "UNLICENSED: SCHOOL-RUN",
        "image_url": "https://maps.googleapis.com/maps/api/streetview?location=nyc+758+COURTLANDT&size=640x640&key=AIzaSyA_I3YwX1T9Q5bE-bgcj8VuqT8YRSxU9vs"
      },
      {
        "id": 17,
        "name": "07029 PS 029 - MELROSE SCHOOL",
        "borough": "BRONX",
        "address": "758 COURTLAND AVENUE",
        "site_type": "SCHOOL AGE",
        "program_type": "CENTER",
        "approval_license_type": "UNLICENSED: SCHOOL-RUN",
        "image_url": "https://maps.googleapis.com/maps/api/streetview?location=nyc+758+COURTLAND+AVENUE&size=640x640&key=AIzaSyA_I3YwX1T9Q5bE-bgcj8VuqT8YRSxU9vs"
      },
      {
        "id": 18,
        "name": "07030 PS 30 - WILTON SCHOOL",
        "borough": "BRONX",
        "address": "510 EAST 141ST STREET",
        "site_type": "SCHOOL AGE",
        "program_type": "CENTER",
        "approval_license_type": "UNLICENSED: SCHOOL-RUN",
        "image_url": "https://maps.googleapis.com/maps/api/streetview?location=nyc+510+EAST+141ST+STREET&size=640x640&key=AIzaSyA_I3YwX1T9Q5bE-bgcj8VuqT8YRSxU9vs"
      },
      {
        "id": 19,
        "name": "07031  PS 31 @ IS 151",
        "borough": "BRONX",
        "address": "250 E 156TH ST",
        "site_type": "SCHOOL AGE",
        "program_type": "CENTER",
        "approval_license_type": "UNLICENSED: SCHOOL-RUN",
        "image_url": "https://maps.googleapis.com/maps/api/streetview?location=nyc+250+E+156TH+ST&size=640x640&key=AIzaSyA_I3YwX1T9Q5bE-bgcj8VuqT8YRSxU9vs"
      },
      {
        "id": 20,
        "name": "07031  UFT YOUNG PEOPLE'S ACADEMY",
        "borough": "BRONX",
        "address": "250 EAST 156TH STREET",
        "site_type": "SCHOOL AGE",
        "program_type": "CENTER",
        "approval_license_type": "UNLICENSED: SCHOOL-RUN",
        "image_url": "https://maps.googleapis.com/maps/api/streetview?location=nyc+250+EAST+156TH+STREET&size=640x640&key=AIzaSyA_I3YwX1T9Q5bE-bgcj8VuqT8YRSxU9vs"
      },
      {
        "id": 21,
        "name": "07031 ASPIRA ASP CBO",
        "borough": "BRONX",
        "address": "250 E 156 STREET",
        "site_type": "SCHOOL AGE",
        "program_type": "CENTER",
        "approval_license_type": "OFFICE OF CHILDREN AND FAMILY SERVICES",
        "image_url": "https://maps.googleapis.com/maps/api/streetview?location=nyc+250+E+156+STREET&size=640x640&key=AIzaSyA_I3YwX1T9Q5bE-bgcj8VuqT8YRSxU9vs"
      },
      {
        "id": 22,
        "name": "07031 LIBERTY LEARNING",
        "borough": "BRONX",
        "address": "250 EAST 156TH STREET",
        "site_type": "SCHOOL AGE",
        "program_type": "CENTER",
        "approval_license_type": "UNLICENSED: SCHOOL-RUN",
        "image_url": "https://maps.googleapis.com/maps/api/streetview?location=nyc+250+EAST+156TH+STREET&size=640x640&key=AIzaSyA_I3YwX1T9Q5bE-bgcj8VuqT8YRSxU9vs"
      },
      {
        "id": 23,
        "name": "07043 INWOOD HOUSE PRIME LEADERS CBO",
        "borough": "BRONX",
        "address": "165 BROWN PLACE",
        "site_type": "SCHOOL AGE",
        "program_type": "CENTER",
        "approval_license_type": "OFFICE OF CHILDREN AND FAMILY SERVICES",
        "image_url": "https://maps.googleapis.com/maps/api/streetview?location=nyc+165+BROWN+PLACE&size=640x640&key=AIzaSyA_I3YwX1T9Q5bE-bgcj8VuqT8YRSxU9vs"
      },
      {
        "id": 24,
        "name": "07049 - EAST SIDE HOUSE OST",
        "borough": "BRONX",
        "address": "383 E 139 STREET",
        "site_type": "SCHOOL AGE",
        "program_type": "CENTER",
        "approval_license_type": "UNLICENSED: SCHOOL-RUN",
        "image_url": "https://maps.googleapis.com/maps/api/streetview?location=nyc+383+E+139+STREET&size=640x640&key=AIzaSyA_I3YwX1T9Q5bE-bgcj8VuqT8YRSxU9vs"
      }
    ]
  }